{
    "KPlugin": {
        "Authors": [
            {
                "Email": "aras14k5@gmail.com",
                "Name": "Aras14HD"
            }
        ],
        "Category": "Utilities",
        "Description": "A widget to manually change your screen orientation with kscreen-doctor.",
        "Icon": "battery",
        "Id": "com.gitlab.aras14hd.kde-orient-widget",
        "Name": "OrientWidget",
        "ServiceTypes": [
            "Plasma/Applet"
        ],
        "Version": "1",
        "Website": "https://gitlab.com/Aras14HD/KDE-orient-widget"
    },
    "X-Plasma-API": "declarativeappletscript",
    "X-Plasma-MainScript": "ui/main.qml"
}
